{
  "name": "Rakesh Bade",
  "title": "Front-End Developer",
  "picture": "./profile-pic.jpg",
  "contact": {
    "address": "Austin, TX",
    "social": {
      "linkedin": "https://www.linkedin.com/in/rakesh-bade-65776433/",
      "email": "mailto:baderakesh@gmail.com",
      "phone": "tel:+1-(903)-303-9981",
      "resume": "./rakeshbade-resume.docx"
    }
  },
  "about": "Highly competent Software Engineer with over 10 years of experience, spearheading the development of large-scale software solutions and deploying intuitive solutions to meet customer design requirements and exceed project deadlines. Proficient in a wide range of technologies, including Angular, React, NodeJS, Java and AWS, and experienced in providing technical mentorship, resulting in improved code quality, system reliability, and team productivity. Seeking a challenging role to leverage my skills in a dynamic team environment.",
  "skills": [
    {
      "name": "JavaScript",
      "value": 90,
      "primary": true
    },
    {
      "name": "NodeJS",
      "value": 80,
      "primary": true
    },
    {
      "name": "Bootstrap",
      "value": 95,
      "primary": true
    },
    {
      "name": "React",
      "value": 95,
      "primary": true
    },
    {
      "name": "Java",
      "value": 30,
      "primary": true
    },
    {
      "name": "Angular",
      "value": 60,
      "primary": true
    },
    {
      "name": "CSS",
      "value": 95,
      "primary": true
    },
    {
      "name": "WordPress",
      "value": null,
      "primary": false
    },
    {
      "name": "ES6",
      "value": null,
      "primary": false
    },
    {
      "name": "TypeScript",
      "value": null,
      "primary": false
    },
    {
      "name": "Swagger",
      "value": null,
      "primary": false
    },
    {
      "name": "PHP",
      "value": null,
      "primary": false
    },
    {
      "name": "Adobe Creative Suite",
      "value": null,
      "primary": false
    },
    {
      "name": "Amazon Web Services(AWS)",
      "value": null,
      "primary": false
    },
    {
      "name": "Web Design",
      "value": null,
      "primary": false
    },
    {
      "name": "Print Design",
      "value": null,
      "primary": false
    },
    {
      "name": "RESTful API",
      "value": null,
      "primary": false
    },
    {
      "name": "Sumo Logic",
      "value": null,
      "primary": false
    },
    {
      "name": "Google Analytics",
      "value": null,
      "primary": false
    },
    {
      "name": "SEO",
      "value": null,
      "primary": false
    },
    {
      "name": "Web Accessibility",
      "value": null,
      "primary": false
    },
    {
      "name": "Springboot",
      "value": null,
      "primary": false
    },
    {
      "name": "JUnit",
      "value": null,
      "primary": false
    }
  ],
  "experience": [
    {
      "start": "MAR 2022",
      "end": "PRESENT",
      "client": "ROKU INC",
      "title": "Senior Software Engineer (web)",
      "location": "Austin, TX",
      "information": "<ul><li>Build innovative features in the Roku subscription management, IOT device license management services and method of payment areas</li><li>Migrating Roku camera license management service based of NodeJS to Java Spring boot application</li><li>Implemented TDD with jest for React and Node.js projects and led end-to-end feature development from concept to deployment, ensuring code reliability and project success.</li><li>Create and conduct A/B experiments to analyze user behavior for web optimization for enhanced user experience on the interface that 100s of people use every single day.</li><li>Conduct post-deployment log analysis to track user actions and identify bugs utilizing tools such as New Relic, Kibana, and Grafana.</li><li>Execute comprehensive E2E testing with Cypress, documenting issues.</li><li>Lead cross-functional teams in Email design and subscription management projects, meeting objectives and deadlines.</li><li>Collaborate with program managers, marketing, designers, software engineers in test to build and enhance the UI</li></ul>"
    },
    {
      "start": "JUL 2021",
      "end": "MAR 2022",
      "client": "FISERV",
      "title": "Senior Front-End Developer",
      "location": "Austin, TX",
      "information": "<ul><li>Maintain and Improve Manager dashboard build on AngularJS</li><li>Revamp the old Ruby application to new UI with React and Redux</li><li>Extending the functionality of new React application which is redesign of existing application for pre orders.</li><li>Understand complex architecture of all the connected systems with the manager.</li><li>Be a collaborative team player while working on connected systems to avoid conflicts and downtime.</li></ul>"
    },
    {
      "start": "JUL 2016",
      "end": "JUL 2021",
      "client": "FYI TELEVISION INC.",
      "title": "UI/UX Developer",
      "location": "Grand Prarie, TX",
      "information": "<ul><li>Developed Scalable SPAs using Angular (1.x, 4.x, 7) and React.</li><li>Created an API explorer application in React for easy API query building and data exploration.</li><li>Proficient in TypeScript and ES6 for Angular applications.</li><li>Built a Logger API in Node.js to monitor logs from various services.</li><li>Designed AWS Serverless Node.js Application for parsing, validating, and storing data in NoSQL databases.</li><li>Developed various tools and interfaces, including AI Trailers, command-line tools, IMDb data conversion, API documentation, and web scraping using Node.js and Selenium, with application monitoring and debugging using Sumo Logic.</li></ul>"
    },
    {
      "start": "APR 2015",
      "end": "MAY 2016",
      "client": "Texas A&M University-Commerce",
      "title": "Web Developer",
      "location": "Commerce, TX",
      "information": "<ul><li>Designed and developed user-friendly websites with cross-browser functionality.</li><li>Proficient in Responsive Web Design (RWD).</li><li>Led front-end development for the main college website redesign (www.tamuc.edu).</li><li>Converted front-end designs into Cascade Server templates, utilizing XML and Cascade CMS.</li><li>Developed landing pages for college campaigns and events, such as Viewbook.</li><li>Provided key technical support, debugging, and maintenance for websites while ensuring web standards and accessibility compliance.</li></ul>"
    },
    {
      "start": "OCT 2012",
      "end": "NOV 2014",
      "client": "LimeTech Solutions",
      "title": "Freelance Web Designer and Developer",
      "location": "Remote",
      "information": "<ul><li>WordPress Blog Design for Drupal CMS Integration</li><li>PSD to HTML/CSS Development with Twitter Bootstrap</li><li>End-to-End Web Development for Medium-Scale Sites</li><li>Static Website to WordPress Conversion</li><li>UI/UX Design, Email Newsletters, Brochures, and Analytics Integration</li></ul>"
    }
  ],
  "portfolio": [
    {
      "index": "0",
      "name": "Automated Trailers 1",
      "title": "Automated Trailers 1",
      "thumbnail": "https://images.unsplash.com/photo-1522775417749-29284fb89f43?ixid=MXwxMjA3fDB8MHxwaG90by1wYWdlfHx8fGVufDB8fHw%3D&ixlib=rb-1.2.1&auto=format&fit=crop&w=1267&q=80",
      "description": "Automated Trailers is a AI base video creation tool using scene selection and machine learning. The video can be uploaded from portal and portal has timeline to show scene selection with thumbnails, tags, actors recogniced by machine leaning.",
      "link": "https://ai.contentdiscovery.tv/",
      "skills": [
        {
          "name": "Angular 7",
          "value": null,
          "primary": false
        },
        {
          "name": "Angular Material",
          "value": null,
          "primary": false
        },
        {
          "name": "AWS Cognito",
          "value": null,
          "primary": false
        },
        {
          "name": "Azure Cognitive API",
          "value": null,
          "primary": false
        }
      ],
      "information": "<p>CHALLENGES</p><ul><li>Uploading larger videos more than 5GB </li><li>Scene selection and edit video for 100s of scenes from the timeline</li></ul><p>LOGIN</p><figure><img src='https://images.unsplash.com/photo-1498511225742-7831d53e64b9?ixid=MXwxMjA3fDB8MHxwaG90by1wYWdlfHx8fGVufDB8fHw%3D&ixlib=rb-1.2.1&auto=format&fit=crop&w=1350&q=80'/></figure>"
    },
    {
      "index": "1",
      "name": "Automated Trailers 2",
      "title": "Automated Trailers 2",
      "thumbnail": "https://images.unsplash.com/photo-1522775417749-29284fb89f43?ixid=MXwxMjA3fDB8MHxwaG90by1wYWdlfHx8fGVufDB8fHw%3D&ixlib=rb-1.2.1&auto=format&fit=crop&w=1267&q=80",
      "description": "Automated Trailers is a AI base video creation tool using scene selection and machine learning. The video can be uploaded from portal and portal has timeline to show scene selection with thumbnails, tags, actors recogniced by machine leaning.",
      "link": "https://ai.contentdiscovery.tv/",
      "skills": [
        {
          "name": "Angular 7",
          "value": null,
          "primary": false
        },
        {
          "name": "Angular Material",
          "value": null,
          "primary": false
        },
        {
          "name": "AWS Cognito",
          "value": null,
          "primary": false
        },
        {
          "name": "Azure Cognitive API",
          "value": null,
          "primary": false
        }
      ],
      "information": "<p>CHALLENGES</p><ul><li>Uploading larger videos more than 5GB </li><li>Scene selection and edit video for 100s of scenes from the timeline</li></ul><p>LOGIN</p><figure><img src='https://images.unsplash.com/photo-1498511225742-7831d53e64b9?ixid=MXwxMjA3fDB8MHxwaG90by1wYWdlfHx8fGVufDB8fHw%3D&ixlib=rb-1.2.1&auto=format&fit=crop&w=1350&q=80'/></figure>"
    },
    {
      "index": "3",
      "name": "Automated Trailers 3",
      "title": "Automated Trailers 3",
      "thumbnail": "https://images.unsplash.com/photo-1522775417749-29284fb89f43?ixid=MXwxMjA3fDB8MHxwaG90by1wYWdlfHx8fGVufDB8fHw%3D&ixlib=rb-1.2.1&auto=format&fit=crop&w=1267&q=80",
      "description": "Automated Trailers is a AI base video creation tool using scene selection and machine learning. The video can be uploaded from portal and portal has timeline to show scene selection with thumbnails, tags, actors recogniced by machine leaning.",
      "link": "https://ai.contentdiscovery.tv/",
      "skills": [
        {
          "name": "Angular 7",
          "value": null,
          "primary": false
        },
        {
          "name": "Angular Material",
          "value": null,
          "primary": false
        },
        {
          "name": "AWS Cognito",
          "value": null,
          "primary": false
        },
        {
          "name": "Azure Cognitive API",
          "value": null,
          "primary": false
        }
      ],
      "information": "<p>CHALLENGES</p><ul><li>Uploading larger videos more than 5GB </li><li>Scene selection and edit video for 100s of scenes from the timeline</li></ul><h5>LOGIN</h5><figure><img src='https://images.unsplash.com/photo-1498511225742-7831d53e64b9?ixid=MXwxMjA3fDB8MHxwaG90by1wYWdlfHx8fGVufDB8fHw%3D&ixlib=rb-1.2.1&auto=format&fit=crop&w=1350&q=80'/></figure>"
    }
  ]
}